NBA Point Guards
…
# A tibble: 11 x 2
   PLAYER          SIMILARITY
   <chr>                <dbl>
 1 Josh Okogie          0.893
 2 DeAndre' Bembry      0.782
 3 Kent Bazemore        0.769
 4 Josh Hart            0.759
 5 Josh Jackson         0.724
 6 Garrett Temple       0.677
 7 Marcus Smart         0.639
 8 Austin Rivers        0.627
 9 Justin Holiday       0.602
10 Jaylen Brown         0.578
11 Rodney McGruder      0.571
# A tibble: 22 x 2
   PLAYER            SIMILARITY
   <chr>                  <dbl>
 1 Bryn Forbes            0.930
 2 Landry Shamet          0.913
 3 J.J. Redick            0.865
 4 Malik Beasley          0.850
 5 Reggie Bullock         0.836
 6 Joe Harris             0.828
 7 Marco Belinelli        0.821
 8 Eric Gordon            0.787
 9 Langston Galloway      0.731
10 Rodney Hood            0.668
#  with 12 more rows
…
